\begin{tikzpicture}
    % multiplication
    \draw[] (0,0) rectangle (3.2,0.4) node[pos=.5] {byte};
    \node[] at (3.4,0.2) {$\times$};
    \node[] at (3.8,0.2) {0};
    \node[] at (4.2,0.2) {0};
    \node[] at (4.6,0.2) {0};
    \node[] at (5,0.2) {0};
    \node[] at (5.4,0.2) {0};
    \node[] at (5.8,0.2) {0};
    \node[] at (6.2,0.2) {0};
    \node[] at (6.6,0.2) {1};
    \node[] at (8, 0.2) {shift 0};

    % output
    \draw[] (3.6,-0.6) rectangle (6.8,-1) node[pos=.5] {byte};

    % result
    \draw[dashed] (3.6, -0.2) -- (3.6, -1.4);
    %\draw[dashed] (6.8, -0.2) -- (6.8, -1.4);
    \node[] at (8, -0.8) {result};




    % multiplication
    \draw[] (0,-2) rectangle (3.2,-2.4) node[pos=.5] {byte};
    \node[] at (3.4,-2.2) {$\times$};
    \node[] at (3.8,-2.2) {0};
    \node[] at (4.2,-2.2) {0};
    \node[] at (4.6,-2.2) {0};
    \node[] at (5,-2.2) {0};
    \node[] at (5.4,-2.2) {1};
    \node[] at (5.8,-2.2) {0};
    \node[] at (6.2,-2.2) {0};
    \node[] at (6.6,-2.2) {0};
    \node[] at (8, -2.2) {shift 3};

    % output
    \draw[] (2.4,-3) rectangle (5.6,-3.4) node[pos=.5] {byte};
    \node[] at (5.8,-3.2) {0};
    \node[] at (6.2,-3.2) {0};
    \node[] at (6.6,-3.2) {0};

    % result
    \draw[dashed] (3.6, -2.6) -- (3.6, -3.8);
    %\draw[dashed] (6.8, -2.6) -- (6.8, -3.8);
    \node[] at (8, -3.2) {result};

\end{tikzpicture}
